{
  "language": ["java", "python", "docker"],
  "ci": ["github-actions", "gitlab-ci"],
  "build_tool": ["maven", "tox", "docker"],
  "artifact_host": ["none"],
  "distribution_host": ["none", "github-packages", "dockerhub"],
  "documentation": "n",
  "container_builds": "n",
  "default_branch": "master",
  "sonar_scanning": ["none", "sonarcloud", "sonarqube"],
  "toolchain_name": "itx-{{ cookiecutter.language }}-toolchain"
}
